Content-Type: multipart/mixed; boundary="===============2553734974506228605=="
MIME-Version: 1.0
Number-Attachments: 1

--===============2553734974506228605==
MIME-Version: 1.0
Content-Type: text/x-not-multipart
Content-Disposition: attachment; filename="part-001"


--===============2553734974506228605==--
