Content-Type: multipart/mixed; boundary="===============1963730234795139432=="
MIME-Version: 1.0
Number-Attachments: 1

--===============1963730234795139432==
MIME-Version: 1.0
Content-Type: text/x-not-multipart
Content-Disposition: attachment; filename="part-001"


--===============1963730234795139432==--
